acls:
  enable: false
  modify_groups: []
  modify_users: []
  ui_users: []
  view_groups: []
  view_users: []
file_systems: []
master:
  env:
    SPARK_CONF_DIR: /etc/spark3/conf
    SPARK_HOME: /usr/lib/spark3
  files:
    airflow.keytab:
      size: 0
      source: file:///pytest/path/to/airflow.keytab
      timestamp: 0
      type: FILE
      visibility: APPLICATION
  log_level: INFO
  resources:
    fpgas: 0
    gpus: 0
    memory: 3815
    vcores: 2
  script: spark3-submit --driver-cores 2 --conf spark.executorEnv.SPARK_HOME=/usr/lib/spark3
    --conf spark.executorEnv.SPARK_CONF_DIR=/etc/spark3/conf --master yarn --conf
    spark.dynamicAllocation.enabled=true --conf spark.dynamicAllocation.maxExecutors=16
    --conf spark.shuffle.service.enabled=true --conf spark.yarn.maxAppAttempts=1 --conf
    spark.yarn.appMasterEnv.SPARK_CONF_DIR=/etc/spark3/conf --conf spark.yarn.appMasterEnv.SPARK_HOME=/usr/lib/spark3
    --executor-cores 2 --executor-memory 4G --driver-memory 4G --keytab airflow.keytab
    --principal airflow --name geoeditors_public_monthly__process_geoeditors_public_monthly__20221001
    --class org.apache.spark.sql.hive.thriftserver.WMFSparkSQLCLIDriver --queue production
    --deploy-mode client hdfs:///wmf/cache/artifacts/airflow/analytics/wmf-sparksqlclidriver-1.0.0.jar
    -f hdfs://analytics-hadoop/wmf/refinery/current/hql/geoeditors/public_monthly/load_geoeditors_public_monthly_table.hql
    -d editors_daily_table=wmf.editors_daily -d geoeditors_monthly_table=wmf.geoeditors_monthly
    -d country_info_table=canonical_data.countries -d disallowed_countries_table=canonical_data.countries
    -d project_namespace_map_table=wmf_raw.mediawiki_project_namespace_map -d destination_table=wmf.geoeditors_public_monthly
    -d month=2022-09 -d coalesce=1
max_attempts: 1
name: Airflow SparkSkeinSubmitHook skein launcher geoeditors_public_monthly__process_geoeditors_public_monthly__20221001
node_label: ''
queue: production
services: {}
tags: []
user: ''
