acls:
  enable: false
  modify_groups: []
  modify_users: []
  ui_users: []
  view_groups: []
  view_users: []
file_systems: []
master:
  env:
    SPARK_CONF_DIR: /etc/spark3/conf
    SPARK_HOME: /usr/lib/spark3
  files:
    airflow.keytab:
      size: 0
      source: file:///pytest/path/to/airflow.keytab
      timestamp: 0
      type: FILE
      visibility: APPLICATION
  log_level: INFO
  resources:
    fpgas: 0
    gpus: 0
    memory: 7630
    vcores: 2
  script: spark3-submit --driver-cores 2 --conf spark.executorEnv.SPARK_HOME=/usr/lib/spark3
    --conf spark.executorEnv.SPARK_CONF_DIR=/etc/spark3/conf --master yarn --conf
    spark.sql.catalog.aqs=com.datastax.spark.connector.datasource.CassandraCatalog
    --conf spark.sql.catalog.aqs.spark.cassandra.connection.host=aqs1010-a.eqiad.wmnet:9042,aqs1011-a.eqiad.wmnet:9042,aqs1012-a.eqiad.wmnet:9042
    --conf spark.sql.catalog.aqs.spark.cassandra.auth.username=aqsloader --conf spark.sql.catalog.aqs.spark.cassandra.auth.password=cassandra
    --conf spark.sql.catalog.aqs.spark.cassandra.output.batch.size.rows=1024 --conf
    spark.dynamicAllocation.enabled=true --conf spark.dynamicAllocation.maxExecutors=128
    --conf spark.shuffle.service.enabled=true --conf spark.yarn.maxAppAttempts=1 --conf
    spark.executor.memoryOverhead=2048 --conf spark.yarn.appMasterEnv.SPARK_CONF_DIR=/etc/spark3/conf
    --conf spark.yarn.appMasterEnv.SPARK_HOME=/usr/lib/spark3 --jars hdfs:///wmf/cache/artifacts/airflow/analytics/spark-cassandra-connector-assembly-3.2.0-WMF-1.jar,hdfs:///wmf/cache/artifacts/airflow/analytics/refinery-job-0.2.17-shaded.jar
    --executor-cores 2 --executor-memory 8G --driver-memory 8G --keytab airflow.keytab
    --principal airflow --name cassandra_load_mediarequest_per_referer_monthly__load_cassandra__20230901
    --class org.apache.spark.sql.hive.thriftserver.WMFSparkSQLCLIDriver --queue production
    --deploy-mode client hdfs:///wmf/cache/artifacts/airflow/analytics/wmf-sparksqlclidriver-1.0.0.jar
    -f hdfs://analytics-hadoop/wmf/refinery/current/hql/cassandra/monthly/load_cassandra_mediarequest_per_referer_monthly.hql
    -d source_table=wmf.mediarequest -d destination_table=aqs.local_group_default_T_mediarequest_per_referer.data
    -d coalesce_partitions=6 -d year=2023 -d month=8
max_attempts: 1
name: Airflow SparkSkeinSubmitHook skein launcher cassandra_load_mediarequest_per_referer_monthly__load_cassandra__20230901
node_label: ''
queue: production
services: {}
tags: []
user: ''
