acls:
  enable: false
  modify_groups: []
  modify_users: []
  ui_users: []
  view_groups: []
  view_users: []
file_systems: []
master:
  env:
    SPARK_CONF_DIR: /etc/spark3/conf
    SPARK_HOME: /usr/lib/spark3
  files:
    airflow.keytab:
      size: 0
      source: file:///pytest/path/to/airflow.keytab
      timestamp: 0
      type: FILE
      visibility: APPLICATION
  log_level: INFO
  resources:
    fpgas: 0
    gpus: 0
    memory: 11445
    vcores: 2
  script: spark3-submit --driver-cores 2 --conf spark.executorEnv.SPARK_HOME=/usr/lib/spark3
    --conf spark.executorEnv.SPARK_CONF_DIR=/etc/spark3/conf --master yarn --conf
    spark.sql.catalog.aqs=com.datastax.spark.connector.datasource.CassandraCatalog
    --conf spark.sql.catalog.aqs.spark.cassandra.connection.host=aqs1010-a.eqiad.wmnet:9042,aqs1011-a.eqiad.wmnet:9042,aqs1012-a.eqiad.wmnet:9042
    --conf spark.sql.catalog.aqs.spark.cassandra.auth.username=aqsloader --conf spark.sql.catalog.aqs.spark.cassandra.auth.password=cassandra
    --conf spark.sql.catalog.aqs.spark.cassandra.output.batch.size.rows=1024 --conf
    spark.yarn.maxAppAttempts=1 --conf spark.dynamicAllocation.enabled=true --conf
    spark.dynamicAllocation.maxExecutors=64 --conf spark.shuffle.service.enabled=true
    --conf spark.sql.shuffle.partitions=256 --conf spark.sql.sources.partitionOverwriteMode=dynamic
    --conf spark.executor.memoryOverhead=4096 --conf spark.sql.warehouse.dir=/tmp
    --conf spark.yarn.appMasterEnv.SPARK_CONF_DIR=/etc/spark3/conf --conf spark.yarn.appMasterEnv.SPARK_HOME=/usr/lib/spark3
    --jars hdfs:///wmf/cache/artifacts/airflow/platform_eng/spark-cassandra-connector-assembly-3.2.0-WMF-1.jar,hdfs:///wmf/cache/artifacts/airflow/platform_eng/refinery-job-0.2.8-shaded.jar
    --executor-cores 4 --executor-memory 20G --driver-memory 12G --keytab airflow.keytab
    --principal airflow --name image_suggestions__hive_to_cassandra_instanceof_cache__20220530
    --class org.apache.spark.sql.hive.thriftserver.WMFSparkSQLCLIDriver --queue production
    --deploy-mode client hdfs:///wmf/cache/artifacts/airflow/platform_eng/wmf-sparksqlclidriver-1.0.0.jar
    -e 'INSERT INTO aqs.image_suggestions.instanceof_cache SELECT /*+ COALESCE(6)
    */ wiki,page_id,page_rev,instance_of FROM analytics_platform_eng.image_suggestions_instanceof_cache
    WHERE snapshot='"'"'2022-05-23'"'"''
max_attempts: 1
name: Airflow SparkSkeinSubmitHook skein launcher image_suggestions__hive_to_cassandra_instanceof_cache__20220530
node_label: ''
queue: production
services: {}
tags: []
user: ''
